<?xml version="1.0" encoding="utf-8"?>
<!-- Generator: Adobe Illustrator 22.0.1, SVG Export Plug-In . SVG Version: 6.00 Build 0)  -->
<svg version="1.1" id="Layer_1" xmlns="http://www.w3.org/2000/svg" xmlns:xlink="http://www.w3.org/1999/xlink" x="0px" y="0px"
	 viewBox="0 0 22 45" style="enable-background:new 0 0 22 45;" xml:space="preserve">
<style type="text/css">
	.st0{fill:#AAAAAA;}
</style>
<polygon class="st0" points="5.7,12.2 5.7,20.5 3.1,23.1 2.2,22.3 2.2,10.9 "/>
<path class="st0" d="M17.5,39.3H4.4c-1.2-0.3-1.9-1-2.2-2.2l3.5-1.3h10.5L17.5,39.3z"/>
<path class="st0" d="M16.1,11.3H5.7L2.2,10c0.3-1.2,1-1.9,2.2-2.2h13L16.1,11.3z"/>
<polygon class="st0" points="17,21.8 18.8,23.6 17,25.3 5.7,25.3 3.9,23.6 5.7,21.8 "/>
<path class="st0" d="M19.6,24l0.9,0.9v12.2c-0.3,1.2-1,1.9-2.2,2.2L17,35.8v-9.2L19.6,24z"/>
</svg>
